9 Data Wrangling II: Merging & reshaping – GradAB R Intro 2024
…
9.2.3 Exercise

9.3 Exercises

9.3.1 Exercise 1: Joining

Join the selected observations from PENDDAT_cf_W13.dta with the household data to include the region where the respondents live, using hnr and welle as keys.

pend_ue11 <- haven::read_dta("./orig/PENDDAT_cf_W13.dta", col_select = c("pnr", "welle")) %>% slice(1:10)

hh_dat <- haven::read_dta("./orig/HHENDDAT_cf_W13.dta", col_select = c("hnr", "welle", "region"))

pend_ue11 %>% left_join(hh_dat, by = c("welle"))

#> # A tibble: 18,466 × 4
#>           pnr welle                       hnr region   
#>         <dbl> <dbl+lbl>                 <dbl> <dbl+lbl>
#>  1 1000001901 1 [Wave 1 (2006/2007)] 10000019 4 [West] 
#>  2 1000001901 1 [Wave 1 (2006/2007)] 10000020 4 [West] 
#>  3 1000001901 1 [Wave 1 (2006/2007)] 10000023 4 [West] 
#>  4 1000001901 1 [Wave 1 (2006/2007)] 10000026 4 [West] 
#>  5 1000001901 1 [Wave 1 (2006/2007)] 10000031 4 [West] 
#>  6 1000001901 1 [Wave 1 (2006/2007)] 10000032 4 [West] 
#>  7 1000001901 1 [Wave 1 (2006/2007)] 10000035 4 [West] 
#>  8 1000001901 1 [Wave 1 (2006/2007)] 10000040 4 [West] 
#>  9 1000001901 1 [Wave 1 (2006/2007)] 10000043 4 [West] 
#> 10 1000001901 1 [Wave 1 (2006/2007)] 10000055 3 [Süd]  
#> # ℹ 18,456 more rows
…
