10 Labels & factors – IAB R Crash Course 2025
…
How can you use the labels from the attributes() with as_factor() to create a variable PD0400_fct?

Create a factor() variable F411_01_fct2 with value labels: 1 = Not at all, 2 = Rather not, 3 = Rather yes, 4 = Very much

Bonus exercise: Use the labeled variable for a bar chart.

10.4 Appendix

10.4.1 Remove labels with zap_... from {haven}

The label attributes() often cause problems in further processing. With haven::zap_labels(), we can remove value labels from a dataset, and with haven::zap_label(), we can remove variable labels.

pend_kap5

# A tibble: 683 × 6
          pnr welle             zpsex      PSM0100                 azges1 palter
        <dbl> <dbl+lbl>         <dbl+lbl>  <dbl+lbl>               <dbl+> <dbl+>
 1 1000002601 8 [Wave 8 (2014)] 2 [Female]  2 [No]                 22     34    
 2 1000010402 8 [Wave 8 (2014)] 2 [Female]  1 [Yes]                40     30    
 3 1000019102 8 [Wave 8 (2014)] 1 [Male]    2 [No]                 40     34    
 4 1000031403 8 [Wave 8 (2014)] 1 [Male]   -5 [Does not use the i… 44     52    
 5 1000032801 8 [Wave 8 (2014)] 2 [Female] -5 [Does not use the i… 44     58    
 6 1000032802 8 [Wave 8 (2014)] 1 [Male]   -5 [Does not use the i… 43     62    
 7 1000038201 8 [Wave 8 (2014)] 1 [Male]    1 [Yes]                43     61    
 8 1000040003 8 [Wave 8 (2014)] 1 [Male]    2 [No]                 36     40    
 9 1000051801 8 [Wave 8 (2014)] 2 [Female]  2 [No]                 31     44    
10 1000053101 8 [Wave 8 (2014)] 1 [Male]    1 [Yes]                27     47    
# ℹ 673 more rows

pend_kap5 %>% 
  haven::zap_labels() # remove value labels

# A tibble: 683 × 6
          pnr welle zpsex PSM0100 azges1 palter
        <dbl> <dbl> <dbl>   <dbl>  <dbl>  <dbl>
 1 1000002601     8     2       2     22     34
 2 1000010402     8     2       1     40     30
 3 1000019102     8     1       2     40     34
 4 1000031403     8     1      -5     44     52
 5 1000032801     8     2      -5     44     58
 6 1000032802     8     1      -5     43     62
 7 1000038201     8     1       1     43     61
 8 1000040003     8     1       2     36     40
 9 1000051801     8     2       2     31     44
10 1000053101     8     1       1     27     47
# ℹ 673 more rows
…
